<?xml version="1.0" encoding="utf-8"?>
<!-- Generator: Adobe Illustrator 15.0.0, SVG Export Plug-In . SVG Version: 6.00 Build 0)  -->
<!DOCTYPE svg PUBLIC "-//W3C//DTD SVG 1.1//EN" "http://www.w3.org/Graphics/SVG/1.1/DTD/svg11.dtd">
<svg version="1.1" id="Layer_1" xmlns="http://www.w3.org/2000/svg" xmlns:xlink="http://www.w3.org/1999/xlink" x="0px" y="0px"
	 width="230.173px" height="90.708px" viewBox="0 0 230.173 90.708" enable-background="new 0 0 230.173 90.708"
	 xml:space="preserve">
<g>
	<g>
		<path fill="#004712" stroke="#004712" stroke-width="0.7128" stroke-miterlimit="10" d="M13.217,29.815l0.527-0.055
			c1.523-0.158,2.334,0.23,2.432,1.168c0.062,0.603-0.078,0.972-0.418,1.109l-0.176,0.019c-0.619-0.41-1.463-0.559-2.533-0.446
			c-3.684,0.385-6.68,2.889-8.99,7.514l-0.066,1.073c0.234,2.226,2.346,3.724,6.334,4.491c2.803,0.74,4.279,1.831,4.43,3.271
			c0.299,2.861-1.543,5.662-5.521,8.394c-2.75,1.709-4.846,2.638-6.285,2.788c-1.271,0.133-2.164-0.483-2.68-1.852l0.102-0.723
			l0.352-0.035l2.711,0.428l0.176-0.018c2.914-0.306,5.672-2.251,8.275-5.84l0.223-1.268l-0.055-0.527
			c-0.119-1.139-2.445-2.436-6.982-3.892c-2.428-1.692-3.688-2.983-3.779-3.87c-0.207-1.991,1.516-4.778,5.168-8.358
			C9.256,31.117,11.508,29.994,13.217,29.815z"/>
		<path fill="#004712" stroke="#004712" stroke-width="0.7128" stroke-miterlimit="10" d="M23.201,32.58
			c2.529-0.264,4.922,1.679,7.184,5.826l1.006,1.138l0.057,0.528c0.113,1.088-3.662,2.371-11.326,3.848
			c-1.055,0.109-1.521,0.751-1.398,1.924c1.086,6.994,3.211,10.326,6.375,9.996l2.637-0.277c2.629-3.827,4.086-5.757,4.371-5.787
			l0.352-0.037l0.23,0.511c-1.662,4.675-3.949,7.165-6.861,7.468l-0.527,0.057c-3.766,0.393-6.533-2.279-8.299-8.02l-0.646-2.775
			c-0.328-3.146,0.178-6.812,1.518-10.997c1.258-2.535,2.918-3.656,4.979-3.364L23.201,32.58z M19.021,41.902l0.176-0.019
			l1.426,0.028c4.316-0.636,6.436-1.331,6.357-2.085l-0.184-1.758c-0.656-2.537-1.963-3.704-3.92-3.5l-0.703,0.074
			c-1.561,0.298-2.629,2.542-3.207,6.731L19.021,41.902z"/>
		<path fill="#004712" stroke="#004712" stroke-width="0.7128" stroke-miterlimit="10" d="M43.219,31.735
			c0.988,0.235,1.676,0.577,2.062,1.028l-3.721,1.81c-3.787,3.442-5.422,7.641-4.906,12.596l0.039,0.353
			c0.293,2.811,1.803,4.787,4.527,5.924l2.322,0.113l1.055-0.111c2.041-0.213,3.721-1.157,5.033-2.834l0.705-0.074l0.072,0.703
			c-0.68,1.593-2.197,2.938-4.555,4.029L43.975,56c-2.461,0.256-5.051-0.716-7.768-2.919c-0.973-1.372-1.518-2.618-1.633-3.739
			l-0.094-0.879c-0.627-6.01,1.543-11.331,6.508-15.961L43.219,31.735z"/>
		<path fill="#004712" stroke="#004712" stroke-width="0.7128" stroke-miterlimit="10" d="M60.684,31.967
			c2.371,0.04,3.631,0.738,3.771,2.094l0.037,0.352c0.252,2.428-1.371,6.152-4.875,11.171c0.129,1.239,2.727,2.863,7.793,4.873
			c1.184,0.469,2.445,0.633,3.783,0.493l0.527-0.056l1.213-0.303l0.193,0.156l0.129,1.23c0.098,0.937-0.439,1.468-1.609,1.59
			c-2.562,0.268-7.359-1.422-14.391-5.073l-0.527,0.056c-0.387,0.041-0.52,1.595-0.402,4.663l-0.26,0.915l-1.139,1.008
			c-1.338-0.334-2.037-0.795-2.1-1.38c-0.902-13.175-0.943-19.805-0.121-19.891l0.861-0.268l0.174-0.019
			c0.186-0.018,0.463,0.367,0.832,1.158l0.703-0.074C56.371,33.466,58.174,32.569,60.684,31.967z M55.262,43.018l0.092,0.878
			c0.109,1.056,0.457,1.552,1.043,1.49c2.643-1.748,4.432-4.482,5.365-8.2l0.082-0.897l-0.109-1.055
			c-0.283-0.444-0.672-0.76-1.164-0.944l-1.055,0.109c-2.346,0.245-3.789,2.292-4.336,6.14L55.262,43.018z"/>
		<path fill="#004712" stroke="#004712" stroke-width="0.7128" stroke-miterlimit="10" d="M75.484,27.122
			c2.527-0.264,4.922,1.679,7.184,5.825l1.006,1.139l0.055,0.528c0.115,1.087-3.662,2.37-11.324,3.847
			c-1.055,0.109-1.521,0.752-1.398,1.923c1.084,6.995,3.209,10.327,6.373,9.997l2.637-0.275c2.631-3.828,4.086-5.758,4.371-5.788
			l0.352-0.037l0.23,0.511c-1.66,4.676-3.947,7.164-6.859,7.468l-0.529,0.056c-3.766,0.393-6.533-2.279-8.299-8.02l-0.646-2.774
			c-0.328-3.146,0.178-6.813,1.518-10.998c1.26-2.535,2.918-3.655,4.98-3.363L75.484,27.122z M71.305,36.443l0.176-0.018
			l1.424,0.027c4.316-0.635,6.436-1.331,6.357-2.085l-0.184-1.757c-0.654-2.537-1.961-3.705-3.92-3.5l-0.703,0.073
			c-1.559,0.298-2.629,2.542-3.205,6.732L71.305,36.443z"/>
		<path fill="#004712" stroke="#004712" stroke-width="0.7128" stroke-miterlimit="10" d="M89.371,14.731
			c1.072,0.059,1.646,0.471,1.729,1.242l0.906,10.388l0.564,0.297l0.176-0.018l5.018-3.012c0.363,0.081,0.576,0.414,0.637,0.999
			c-0.076,1.55-0.348,2.346-0.816,2.396l-1.406,0.146c-2.389,0.943-3.541,1.834-3.453,2.671c0.254,2.444,1.395,8.249,3.418,17.413
			c0.064,0.619-0.279,1.307-1.029,2.062l-0.176,0.018c-0.703,0.074-1.371-2.936-2.008-9.03c-0.5-3.637-1.193-6.882-2.084-9.733
			c-1.877,0.822-3.764,2.034-5.66,3.637l-0.527,0.056l-0.129-1.23c-0.104-0.987,1.426-2.222,4.588-3.703
			c0.857-0.867,1.271-1.443,1.242-1.729c-0.363-3.482-1.107-7.196-2.23-11.141C88.055,15.74,88.469,15.164,89.371,14.731z"/>
		<path fill="#004712" stroke="#004712" stroke-width="0.7128" stroke-miterlimit="10" d="M113.914,23.693
			c1.823,0.437,2.794,1.224,2.914,2.361l0.366,3.516l0.319,4.765c0.504,4.822,1.53,8.979,3.081,12.473
			c0.049,1.297-0.411,1.998-1.382,2.099c-1.021,0.107-2.046-3.458-3.071-10.696l-0.608-2.424l-0.176,0.019
			c-1.662,4.522-3.152,7.817-4.477,9.885c-1.785,2.2-3.439,3.38-4.963,3.54c-2.758-0.321-4.246-1.528-4.463-3.622
			c-0.318-3.03-0.121-5.525,0.588-7.487c0.709-1.96,1.928-4.423,3.658-7.389c1.73-2.963,3.945-5.196,6.65-6.696L113.914,23.693z
			 M103.537,43.435l0.127,1.23c0.137,1.289,0.73,1.879,1.785,1.77l0.879-0.094c3.6-0.375,6.268-5.452,8.006-15.229l-0.385-3.691
			c-0.092-0.87-0.316-1.319-0.674-1.352l-0.352,0.037c-2.748,0.913-5.564,4.584-8.447,11.01
			C103.725,40.124,103.41,42.23,103.537,43.435z"/>
		<path fill="#004712" stroke="#004712" stroke-width="0.7128" stroke-miterlimit="10" d="M130.091,24.721
			c2.373,0.039,3.631,0.737,3.772,2.094l0.037,0.351c0.254,2.428-1.372,6.152-4.875,11.172c0.13,1.239,2.728,2.862,7.794,4.873
			c1.184,0.469,2.443,0.632,3.783,0.492l0.527-0.056l1.212-0.303l0.194,0.156l0.128,1.23c0.1,0.938-0.439,1.468-1.61,1.591
			c-2.561,0.266-7.357-1.424-14.391-5.072l-0.526,0.054c-0.385,0.041-0.519,1.595-0.401,4.663l-0.261,0.914l-1.138,1.009
			c-1.339-0.335-2.039-0.794-2.1-1.38c-0.901-13.175-0.942-19.804-0.122-19.891l0.86-0.268l0.176-0.017
			c0.185-0.02,0.461,0.366,0.832,1.156l0.703-0.074C125.78,26.219,127.581,25.322,130.091,24.721z M124.671,35.771l0.091,0.878
			c0.11,1.056,0.458,1.552,1.044,1.49c2.644-1.747,4.432-4.481,5.364-8.2l0.084-0.897l-0.111-1.055
			c-0.283-0.444-0.671-0.758-1.164-0.944l-1.055,0.109c-2.344,0.245-3.789,2.292-4.335,6.14L124.671,35.771z"/>
		<path fill="#004712" stroke="#004712" stroke-width="0.7128" stroke-miterlimit="10" d="M138.594,13.273
			c0.653-0.069,1.21,0.17,1.674,0.713c-0.371,0.986-0.967,1.523-1.787,1.608l-1.093-0.241l-0.109-1.056
			C137.569,13.676,138.008,13.333,138.594,13.273z M139.621,23.116c0.837,0.083,1.315,0.684,1.433,1.806l0.767,10.76
			c0.244,2.328,0.775,4.582,1.595,6.764l0.02,0.175c-0.122,0.453-0.776,0.995-1.963,1.627c-0.502,0.053-1.015-0.309-1.535-1.084
			l0.158-0.194l-0.496-4.745c-0.667-6.395-1.36-10.766-2.078-13.11C137.43,24.259,138.131,23.594,139.621,23.116z"/>
		<path fill="#004712" stroke="#004712" stroke-width="0.7128" stroke-miterlimit="10" d="M158.438,19.044
			c1.823,0.438,2.794,1.224,2.913,2.362l0.367,3.515l0.318,4.766c0.504,4.821,1.53,8.979,3.08,12.473
			c0.05,1.296-0.409,1.996-1.38,2.099c-1.022,0.105-2.046-3.46-3.072-10.696l-0.608-2.426l-0.176,0.019
			c-1.66,4.523-3.151,7.818-4.478,9.886c-1.783,2.2-3.437,3.38-4.96,3.539c-2.759-0.321-4.247-1.528-4.465-3.621
			c-0.316-3.029-0.119-5.525,0.588-7.487c0.711-1.96,1.93-4.422,3.658-7.388c1.73-2.964,3.946-5.196,6.651-6.698L158.438,19.044z
			 M148.061,38.786l0.128,1.231c0.135,1.289,0.73,1.879,1.784,1.77l0.88-0.093c3.599-0.376,6.266-5.452,8.005-15.23l-0.385-3.69
			c-0.092-0.871-0.317-1.321-0.674-1.352l-0.353,0.037c-2.748,0.913-5.562,4.584-8.446,11.011
			C148.248,35.475,147.935,37.582,148.061,38.786z"/>
	</g>
	<g>
		<path fill="#00853F" stroke="#00853F" stroke-width="0.7128" stroke-miterlimit="10" d="M99.812,51.148
			c0.58,0.209,0.861,0.574,0.84,1.096c-1.074,3.123-1.994,8.576-2.764,16.361c-0.768,7.785-1.842,12.037-3.219,12.754
			c-0.59,0.447-1.307,0.654-2.146,0.619c-0.221-0.01-0.947-0.924-2.186-2.744L82.541,62.46c0.191-0.581,0.615-0.857,1.271-0.83
			l0.529,0.021c0.875,0.035,1.812,1.607,2.812,4.715l5.719,11.381l0.178,0.006c0.623,0.026,1.537-4.357,2.742-13.151
			c1.205-8.796,2.07-13.181,2.592-13.159L99.812,51.148z"/>
		<path fill="#00853F" stroke="#00853F" stroke-width="0.7128" stroke-miterlimit="10" d="M103.924,60.49
			c0.816,0.203,1.203,0.867,1.156,1.993l-0.799,10.759c-0.098,2.337,0.102,4.646,0.598,6.922l-0.008,0.178
			c-0.186,0.431-0.912,0.871-2.178,1.324c-0.504-0.021-0.959-0.451-1.361-1.293l0.186-0.17l0.197-4.768
			c0.266-6.426,0.211-10.848-0.16-13.273C101.59,61.304,102.379,60.748,103.924,60.49z M104.332,50.601
			c0.656,0.027,1.174,0.344,1.553,0.949c-0.51,0.922-1.176,1.367-2,1.332l-1.045-0.396l0.043-1.06
			C103.262,50.852,103.744,50.578,104.332,50.601z"/>
		<path fill="#00853F" stroke="#00853F" stroke-width="0.7128" stroke-miterlimit="10" d="M118.328,61.693
			c2.343,0.383,3.485,1.256,3.43,2.618l-0.015,0.353c-0.101,2.439-2.249,5.889-6.442,10.348c-0.051,1.244,2.284,3.227,7.008,5.95
			c1.101,0.634,2.326,0.981,3.671,1.036l0.53,0.021l1.243-0.125l0.169,0.184l-0.051,1.236c-0.039,0.941-0.647,1.389-1.825,1.34
			c-2.572-0.107-7.075-2.475-13.503-7.104l-0.529-0.022c-0.389-0.016-0.744,1.503-1.072,4.557l-0.393,0.867l-1.271,0.832
			c-1.273-0.524-1.9-1.081-1.875-1.67c1.016-13.166,1.934-19.73,2.76-19.696l0.891-0.14l0.176,0.008
			c0.186,0.007,0.402,0.428,0.654,1.264l0.707,0.029C113.846,62.552,115.759,61.924,118.328,61.693z M111.365,71.841l-0.037,0.883
			c-0.045,1.059,0.227,1.602,0.816,1.626c2.867-1.349,5.035-3.793,6.495-7.339l0.213-0.875l0.043-1.06
			c-0.215-0.48-0.555-0.848-1.015-1.103l-1.06-0.044c-2.354-0.097-4.083,1.718-5.179,5.446L111.365,71.841z"/>
		<path fill="#00853F" stroke="#00853F" stroke-width="0.7128" stroke-miterlimit="10" d="M131.703,48.07
			c1.053,0.213,1.563,0.705,1.531,1.479l-0.608,10.41l0.516,0.375l0.177,0.008l5.401-2.254c0.347,0.134,0.51,0.494,0.485,1.082
			c-0.3,1.521-0.684,2.271-1.155,2.252l-1.412-0.059c-2.501,0.587-3.768,1.303-3.803,2.143c-0.102,2.456,0.185,8.363,0.858,17.725
			c-0.026,0.623-0.465,1.252-1.317,1.891l-0.176-0.008c-0.707-0.029-0.933-3.104-0.68-9.226c0.033-3.67-0.184-6.982-0.65-9.933
			c-1.977,0.541-4.021,1.467-6.13,2.779l-0.528-0.023l0.051-1.234c0.041-0.992,1.731-1.992,5.077-3
			c0.972-0.734,1.466-1.244,1.478-1.531c0.146-3.497-0.054-7.279-0.593-11.345C130.255,48.877,130.748,48.367,131.703,48.07z"/>
		<path fill="#00853F" stroke="#00853F" stroke-width="0.7128" stroke-miterlimit="10" d="M154.877,60.273
			c0.941,0.039,1.294,2.942,1.055,8.711c-0.225,5.432,0.234,9.99,1.381,13.678l-0.008,0.175c-0.94,1.142-1.73,1.699-2.369,1.673
			c-0.403-0.017-0.786-3.57-1.151-10.661l-0.169-0.185c0.015-0.354-0.096-0.533-0.331-0.543l-0.178-0.008
			c-0.203,0.024-1.412,2.215-3.632,6.57c-2.299,3.443-4.491,5.122-6.575,5.037c-2.237-0.094-3.233-3.084-2.99-8.971
			c0.867-9.987,1.839-14.959,2.916-14.914l0.353,0.015c0.202,0.009,0.367,0.311,0.493,0.905c-0.727,3.321-1.352,8.426-1.871,15.312
			c-0.122,2.942,0.702,4.45,2.466,4.524c2.522,0.104,5.417-4.316,8.687-13.262C153.176,62.915,153.817,60.229,154.877,60.273z"/>
		<path fill="#00853F" stroke="#00853F" stroke-width="0.7128" stroke-miterlimit="10" d="M189.161,56.554
			c1.519,0.365,2.253,1.162,2.202,2.391l-1.386,20.639l-0.138,3.355c-0.01,0.234,0.161,0.359,0.516,0.373
			c2.756,0.115,5.308-0.25,7.651-1.098c1.52,0.334,2.27,0.717,2.252,1.155l-0.015,0.352c-0.037,0.893-3.306,1.464-9.801,1.718
			c-2.473-0.102-3.673-0.977-3.605-2.625c0.873-6.871,1.406-12.628,1.599-17.27l0.029-0.707c0.129-3.144,0.108-5.503-0.061-7.076
			C188.546,57.177,188.799,56.775,189.161,56.554z"/>
	</g>
	<g>
		<path fill="#00853F" stroke="#00853F" stroke-width="0.7128" stroke-miterlimit="10" d="M173.188,48.044
			c3.315,1.176,6.608,4.196,9.883,9.059c1.51,2.705,2.264,5.588,2.264,8.647v2.266c-0.588,6.999-1.204,10.5-1.852,10.5
			c-1.921,5.432-3.913,8.657-5.97,9.677c-1.335,0.567-3.188,1.049-5.56,1.441l-5.561-1.853c-0.273,0-1.716-1.442-4.323-4.325
			c-1.511-1.196-2.675-4.695-3.499-10.498v-1.443c0-3.49,0.891-7.812,2.676-12.972C164.031,53.565,168.011,50.064,173.188,48.044z
			 M161.041,71.103c0,8.236,2.881,13.385,8.646,15.441c0.628,0.275,1.521,0.414,2.677,0.414h0.617c2.629,0,4.618-1.923,5.972-5.766
			V80.37c0-0.275-0.893-0.481-2.678-0.618c-0.41-2.059-0.823-3.09-1.234-3.09h-0.412c0,1.334-1.441,2.707-4.323,4.118l-1.236,0.206
			c-1.372-0.471-2.058-1.432-2.058-2.882v-1.442c0-4.606,2.127-8.998,6.383-13.177l2.881-1.44h0.207c1.509,0,2.264,1.03,2.264,3.088
			v10.501l0.413,0.411c1.078,0,2.382-1.715,3.911-5.146l0.412-4.735c0-4.216-1.853-8.402-5.56-12.56
			c-2-1.784-3.578-2.676-4.735-2.676h-0.411c-4.471,1.823-7.903,5.461-10.295,10.91C161.52,65.838,161.041,68.927,161.041,71.103z
			 M173.805,65.75c-1.785,1.726-3.294,4.882-4.528,9.472c0.078,2.471,0.421,3.705,1.029,3.705c1.373,0,2.538-1.509,3.499-4.529
			c1.039-1.861,1.59-3.371,1.647-4.529v-1.853C175.452,66.506,174.903,65.75,173.805,65.75z"/>
	</g>
	<g>
		<g>
			<path fill="#00853F" d="M169.167,42.476c6.849-0.819,11.842,1.485,14.224,8.166c0.361,1.013,3.095,0.217,2.754-0.738
				c-2.737-7.677-8.927-9.947-16.62-9.026C168.159,41.041,167.264,42.704,169.167,42.476L169.167,42.476z"/>
		</g>
	</g>
	<g>
		<g>
			<path fill="#00853F" d="M167.322,33.319c6.611-0.34,13.312,0.284,19.035,3.867c5.903,3.696,7.835,10.812,7.967,17.361
				c0.038,1.872,4.177,1.023,4.146-0.459c-0.155-7.697-2.385-14.452-8.855-19.012c-6.142-4.328-14.589-4.626-21.785-4.256
				C165.695,30.931,164.476,33.465,167.322,33.319L167.322,33.319z"/>
		</g>
	</g>
	<g>
		<g>
			<path fill="#00853F" d="M165.494,20.657c11.921-3.059,24.106-1.718,33.198,7.114c8.233,7.998,11.123,20.158,11.242,31.261
				c0.013,1.197,2.769,0.613,2.758-0.328c-0.132-12.391-3.583-24.955-13.021-33.506c-9.461-8.572-22.799-9.005-34.563-5.986
				C163.44,19.64,163.834,21.083,165.494,20.657L165.494,20.657z"/>
		</g>
	</g>
	<g>
		<g>
			<path fill="#00853F" d="M152.043,16.395c13.479-16.322,38.301-16.25,54.787-4.67c17.367,12.199,20.524,34.624,18.604,54.252
				c-0.151,1.548,3.992,0.727,4.119-0.564c2.258-23.097-2.926-47.415-25.047-59.058c-18.004-9.476-43.156-5.858-56.286,10.041
				C147.117,17.731,151.249,17.356,152.043,16.395L152.043,16.395z"/>
		</g>
	</g>
</g>
</svg>
